<?xml version="1.0" encoding="UTF-8" standalone="no"?>
<svg xmlns="http://www.w3.org/2000/svg"
     contentScriptType="application/ecmascript" contentStyleType="text/css"
     height="637px" preserveAspectRatio="none"
     style="width:510px;height:637px;background:#FFFFFF;" version="1.1"
     viewBox="0 0 510 637" width="510px" zoomAndPan="magnify"><defs><filter height="300%" id="fgsio7ijutx6i" width="300%" x="-1" y="-1"><feGaussianBlur result="blurOut" stdDeviation="2.0"/><feColorMatrix in="blurOut" result="blurOut2" type="matrix" values="0 0 0 0 0 0 0 0 0 0 0 0 0 0 0 0 0 0 .4 0"/><feOffset dx="4.0" dy="4.0" in="blurOut2" result="blurOut3"/><feBlend in="SourceGraphic" in2="blurOut3" mode="normal"/></filter></defs><g><rect fill="#FFFFFF" filter="url(#fgsio7ijutx6i)" height="174.6924" style="stroke:#000000;stroke-width:2.0;" width="486.5" x="10" y="156.9448"/><rect fill="#FFFFFF" filter="url(#fgsio7ijutx6i)" height="231.29" style="stroke:#000000;stroke-width:2.0;" width="410.5" x="10" y="345.6372"/><rect fill="#FFFFFF" height="114.4951" style="stroke:none;stroke-width:1.0;" width="410.5" x="10" y="462.4321"/><line style="stroke:#A80036;stroke-width:1.0;stroke-dasharray:5.0,5.0;" x1="92" x2="92" y1="40.0986" y2="593.9272"/><line style="stroke:#A80036;stroke-width:1.0;stroke-dasharray:5.0,5.0;" x1="320" x2="320" y1="40.0986" y2="593.9272"/><line style="stroke:#A80036;stroke-width:1.0;stroke-dasharray:5.0,5.0;" x1="455.5" x2="455.5" y1="40.0986" y2="593.9272"/><rect fill="#FEFECE" filter="url(#fgsio7ijutx6i)" height="30.0986" style="stroke:#A80036;stroke-width:1.5;" width="141" x="20" y="5"/><text fill="#000000" font-family="sans-serif" font-size="14" lengthAdjust="spacing" textLength="127" x="27" y="25.1318">SimulationController</text><rect fill="#FEFECE" filter="url(#fgsio7ijutx6i)" height="30.0986" style="stroke:#A80036;stroke-width:1.5;" width="141" x="20" y="592.9272"/><text fill="#000000" font-family="sans-serif" font-size="14" lengthAdjust="spacing" textLength="127" x="27" y="613.0591">SimulationController</text><rect fill="#FEFECE" filter="url(#fgsio7ijutx6i)" height="30.0986" style="stroke:#A80036;stroke-width:1.5;" width="93" x="272" y="5"/><text fill="#000000" font-family="sans-serif" font-size="14" lengthAdjust="spacing" textLength="79" x="279" y="25.1318">Environment</text><rect fill="#FEFECE" filter="url(#fgsio7ijutx6i)" height="30.0986" style="stroke:#A80036;stroke-width:1.5;" width="93" x="272" y="592.9272"/><text fill="#000000" font-family="sans-serif" font-size="14" lengthAdjust="spacing" textLength="79" x="279" y="613.0591">Environment</text><rect fill="#FEFECE" filter="url(#fgsio7ijutx6i)" height="30.0986" style="stroke:#A80036;stroke-width:1.5;" width="58" x="424.5" y="5"/><text fill="#000000" font-family="sans-serif" font-size="14" lengthAdjust="spacing" textLength="44" x="431.5" y="25.1318">Muscle</text><rect fill="#FEFECE" filter="url(#fgsio7ijutx6i)" height="30.0986" style="stroke:#A80036;stroke-width:1.5;" width="58" x="424.5" y="592.9272"/><text fill="#000000" font-family="sans-serif" font-size="14" lengthAdjust="spacing" textLength="44" x="431.5" y="613.0591">Muscle</text><polygon fill="#A80036" points="308.5,67.0474,318.5,71.0474,308.5,75.0474,312.5,71.0474" style="stroke:#A80036;stroke-width:1.0;"/><line style="stroke:#A80036;stroke-width:1.0;stroke-dasharray:2.0,2.0;" x1="92.5" x2="314.5" y1="71.0474" y2="71.0474"/><text fill="#000000" font-family="sans-serif" font-size="13" font-weight="bold" lengthAdjust="spacing" textLength="7" x="99.5" y="66.2925">1</text><text fill="#000000" font-family="sans-serif" font-size="13" lengthAdjust="spacing" textLength="147" x="110.5" y="66.2925">EnvironmentStartRequest</text><line style="stroke:#A80036;stroke-width:1.0;stroke-dasharray:2.0,2.0;" x1="320.5" x2="362.5" y1="99.9961" y2="99.9961"/><line style="stroke:#A80036;stroke-width:1.0;stroke-dasharray:2.0,2.0;" x1="362.5" x2="362.5" y1="99.9961" y2="112.9961"/><line style="stroke:#A80036;stroke-width:1.0;stroke-dasharray:2.0,2.0;" x1="321.5" x2="362.5" y1="112.9961" y2="112.9961"/><polygon fill="#A80036" points="331.5,108.9961,321.5,112.9961,331.5,116.9961,327.5,112.9961" style="stroke:#A80036;stroke-width:1.0;"/><text fill="#000000" font-family="sans-serif" font-size="13" font-weight="bold" lengthAdjust="spacing" textLength="7" x="327.5" y="95.2412">2</text><text fill="#000000" font-family="sans-serif" font-size="13" lengthAdjust="spacing" textLength="110" x="338.5" y="95.2412">start_environment()</text><polygon fill="#A80036" points="103.5,137.9448,93.5,141.9448,103.5,145.9448,99.5,141.9448" style="stroke:#A80036;stroke-width:1.0;"/><line style="stroke:#A80036;stroke-width:1.0;stroke-dasharray:2.0,2.0;" x1="97.5" x2="319.5" y1="141.9448" y2="141.9448"/><text fill="#000000" font-family="sans-serif" font-size="13" font-weight="bold" lengthAdjust="spacing" textLength="7" x="109.5" y="137.1899">3</text><text fill="#000000" font-family="sans-serif" font-size="13" lengthAdjust="spacing" textLength="157" x="120.5" y="137.1899">EnvironmentStartResponse</text><path d="M10,156.9448 L83,156.9448 L83,162.9448 L73,172.9448 L10,172.9448 L10,156.9448 " fill="#EEEEEE" style="stroke:#000000;stroke-width:1.0;"/><rect fill="none" height="174.6924" style="stroke:#000000;stroke-width:2.0;" width="486.5" x="10" y="156.9448"/><text fill="#000000" font-family="sans-serif" font-size="13" font-weight="bold" lengthAdjust="spacing" textLength="28" x="25" y="170.1387">loop</text><text fill="#000000" font-family="sans-serif" font-size="11" font-weight="bold" lengthAdjust="spacing" textLength="264" x="98" y="169.2627">[Until EnvironmentUpdateResponse.is_terminal]</text><polygon fill="#A80036" points="443.5,190.8423,453.5,194.8423,443.5,198.8423,447.5,194.8423" style="stroke:#A80036;stroke-width:1.0;"/><line style="stroke:#A80036;stroke-width:1.0;stroke-dasharray:2.0,2.0;" x1="92.5" x2="449.5" y1="194.8423" y2="194.8423"/><text fill="#000000" font-family="sans-serif" font-size="13" font-weight="bold" lengthAdjust="spacing" textLength="7" x="99.5" y="190.0874">4</text><text fill="#000000" font-family="sans-serif" font-size="13" lengthAdjust="spacing" textLength="123" x="110.5" y="190.0874">AgentUpdateRequest</text><polygon fill="#A80036" points="103.5,219.791,93.5,223.791,103.5,227.791,99.5,223.791" style="stroke:#A80036;stroke-width:1.0;"/><line style="stroke:#A80036;stroke-width:1.0;stroke-dasharray:2.0,2.0;" x1="97.5" x2="454.5" y1="223.791" y2="223.791"/><text fill="#000000" font-family="sans-serif" font-size="13" font-weight="bold" lengthAdjust="spacing" textLength="7" x="109.5" y="219.0361">5</text><text fill="#000000" font-family="sans-serif" font-size="13" lengthAdjust="spacing" textLength="133" x="120.5" y="219.0361">AgentUpdateResponse</text><polygon fill="#A80036" points="308.5,248.7397,318.5,252.7397,308.5,256.7397,312.5,252.7397" style="stroke:#A80036;stroke-width:1.0;"/><line style="stroke:#A80036;stroke-width:1.0;stroke-dasharray:2.0,2.0;" x1="92.5" x2="314.5" y1="252.7397" y2="252.7397"/><text fill="#000000" font-family="sans-serif" font-size="13" font-weight="bold" lengthAdjust="spacing" textLength="7" x="99.5" y="247.9849">6</text><text fill="#000000" font-family="sans-serif" font-size="13" lengthAdjust="spacing" textLength="160" x="110.5" y="247.9849">EnvironmentUpdateRequest</text><line style="stroke:#A80036;stroke-width:1.0;stroke-dasharray:2.0,2.0;" x1="320.5" x2="362.5" y1="281.6885" y2="281.6885"/><line style="stroke:#A80036;stroke-width:1.0;stroke-dasharray:2.0,2.0;" x1="362.5" x2="362.5" y1="281.6885" y2="294.6885"/><line style="stroke:#A80036;stroke-width:1.0;stroke-dasharray:2.0,2.0;" x1="321.5" x2="362.5" y1="294.6885" y2="294.6885"/><polygon fill="#A80036" points="331.5,290.6885,321.5,294.6885,331.5,298.6885,327.5,294.6885" style="stroke:#A80036;stroke-width:1.0;"/><text fill="#000000" font-family="sans-serif" font-size="13" font-weight="bold" lengthAdjust="spacing" textLength="7" x="327.5" y="276.9336">7</text><text fill="#000000" font-family="sans-serif" font-size="13" lengthAdjust="spacing" textLength="47" x="338.5" y="276.9336">update()</text><polygon fill="#A80036" points="103.5,319.6372,93.5,323.6372,103.5,327.6372,99.5,323.6372" style="stroke:#A80036;stroke-width:1.0;"/><line style="stroke:#A80036;stroke-width:1.0;stroke-dasharray:2.0,2.0;" x1="97.5" x2="319.5" y1="323.6372" y2="323.6372"/><text fill="#000000" font-family="sans-serif" font-size="13" font-weight="bold" lengthAdjust="spacing" textLength="7" x="109.5" y="318.8823">8</text><text fill="#000000" font-family="sans-serif" font-size="13" lengthAdjust="spacing" textLength="170" x="120.5" y="318.8823">EnvironmentUpdateResponse</text><path d="M10,345.6372 L71,345.6372 L71,351.6372 L61,361.6372 L10,361.6372 L10,345.6372 " fill="#EEEEEE" style="stroke:#000000;stroke-width:1.0;"/><rect fill="none" height="231.29" style="stroke:#000000;stroke-width:2.0;" width="410.5" x="10" y="345.6372"/><text fill="#000000" font-family="sans-serif" font-size="13" font-weight="bold" lengthAdjust="spacing" textLength="16" x="25" y="358.8311">alt</text><text fill="#000000" font-family="sans-serif" font-size="11" font-weight="bold" lengthAdjust="spacing" textLength="64" x="86" y="357.9551">[Shutdown]</text><polygon fill="#A80036" points="308.5,379.5347,318.5,383.5347,308.5,387.5347,312.5,383.5347" style="stroke:#A80036;stroke-width:1.0;"/><line style="stroke:#A80036;stroke-width:1.0;stroke-dasharray:2.0,2.0;" x1="92.5" x2="314.5" y1="383.5347" y2="383.5347"/><text fill="#000000" font-family="sans-serif" font-size="13" font-weight="bold" lengthAdjust="spacing" textLength="7" x="99.5" y="378.7798">9</text><text fill="#000000" font-family="sans-serif" font-size="13" lengthAdjust="spacing" textLength="176" x="110.5" y="378.7798">EnvironmentShutdownRequest</text><line style="stroke:#A80036;stroke-width:1.0;stroke-dasharray:2.0,2.0;" x1="320.5" x2="362.5" y1="412.4834" y2="412.4834"/><line style="stroke:#A80036;stroke-width:1.0;stroke-dasharray:2.0,2.0;" x1="362.5" x2="362.5" y1="412.4834" y2="425.4834"/><line style="stroke:#A80036;stroke-width:1.0;stroke-dasharray:2.0,2.0;" x1="321.5" x2="362.5" y1="425.4834" y2="425.4834"/><polygon fill="#A80036" points="331.5,421.4834,321.5,425.4834,331.5,429.4834,327.5,425.4834" style="stroke:#A80036;stroke-width:1.0;"/><text fill="#000000" font-family="sans-serif" font-size="13" font-weight="bold" lengthAdjust="spacing" textLength="14" x="327.5" y="407.7285">10</text><text fill="#000000" font-family="sans-serif" font-size="13" lengthAdjust="spacing" textLength="63" x="345.5" y="407.7285">shutdown()</text><polygon fill="#A80036" points="103.5,450.4321,93.5,454.4321,103.5,458.4321,99.5,454.4321" style="stroke:#A80036;stroke-width:1.0;"/><line style="stroke:#A80036;stroke-width:1.0;stroke-dasharray:2.0,2.0;" x1="97.5" x2="319.5" y1="454.4321" y2="454.4321"/><text fill="#000000" font-family="sans-serif" font-size="13" font-weight="bold" lengthAdjust="spacing" textLength="14" x="109.5" y="449.6772">11</text><text fill="#000000" font-family="sans-serif" font-size="13" lengthAdjust="spacing" textLength="186" x="127.5" y="449.6772">EnvironmentShutdownResponse</text><line style="stroke:#000000;stroke-width:1.0;stroke-dasharray:2.0,2.0;" x1="10" x2="420.5" y1="463.4321" y2="463.4321"/><text fill="#000000" font-family="sans-serif" font-size="11" font-weight="bold" lengthAdjust="spacing" textLength="40" x="15" y="473.75">[Reset]</text><polygon fill="#A80036" points="308.5,494.0298,318.5,498.0298,308.5,502.0298,312.5,498.0298" style="stroke:#A80036;stroke-width:1.0;"/><line style="stroke:#A80036;stroke-width:1.0;stroke-dasharray:2.0,2.0;" x1="92.5" x2="314.5" y1="498.0298" y2="498.0298"/><text fill="#000000" font-family="sans-serif" font-size="13" font-weight="bold" lengthAdjust="spacing" textLength="14" x="99.5" y="493.2749">12</text><text fill="#000000" font-family="sans-serif" font-size="13" lengthAdjust="spacing" textLength="153" x="117.5" y="493.2749">EnvironmentResetRequest</text><line style="stroke:#A80036;stroke-width:1.0;stroke-dasharray:2.0,2.0;" x1="320.5" x2="362.5" y1="526.9785" y2="526.9785"/><line style="stroke:#A80036;stroke-width:1.0;stroke-dasharray:2.0,2.0;" x1="362.5" x2="362.5" y1="526.9785" y2="539.9785"/><line style="stroke:#A80036;stroke-width:1.0;stroke-dasharray:2.0,2.0;" x1="321.5" x2="362.5" y1="539.9785" y2="539.9785"/><polygon fill="#A80036" points="331.5,535.9785,321.5,539.9785,331.5,543.9785,327.5,539.9785" style="stroke:#A80036;stroke-width:1.0;"/><text fill="#000000" font-family="sans-serif" font-size="13" font-weight="bold" lengthAdjust="spacing" textLength="14" x="327.5" y="522.2236">13</text><text fill="#000000" font-family="sans-serif" font-size="13" lengthAdjust="spacing" textLength="37" x="345.5" y="522.2236">reset()</text><polygon fill="#A80036" points="103.5,564.9272,93.5,568.9272,103.5,572.9272,99.5,568.9272" style="stroke:#A80036;stroke-width:1.0;"/><line style="stroke:#A80036;stroke-width:1.0;stroke-dasharray:2.0,2.0;" x1="97.5" x2="319.5" y1="568.9272" y2="568.9272"/><text fill="#000000" font-family="sans-serif" font-size="13" font-weight="bold" lengthAdjust="spacing" textLength="14" x="109.5" y="564.1724">14</text><text fill="#000000" font-family="sans-serif" font-size="13" lengthAdjust="spacing" textLength="163" x="127.5" y="564.1724">EnvironmentResetResponse</text><!--MD5=[dc2de21db317fcb32ec4346c13396d87]
@startuml
'https://plantuml.com/sequence-diagram

autonumber

SimulationController - -> Environment: EnvironmentStartRequest
Environment - -> Environment: start_environment()
Environment - -> SimulationController: EnvironmentStartResponse

loop Until EnvironmentUpdateResponse.is_terminal
    SimulationController - -> Muscle: AgentUpdateRequest
    Muscle - -> SimulationController: AgentUpdateResponse
    SimulationController - -> Environment: EnvironmentUpdateRequest
    Environment - -> Environment: update()
    Environment - -> SimulationController: EnvironmentUpdateResponse
end

alt Shutdown
    SimulationController - -> Environment: EnvironmentShutdownRequest
    Environment - -> Environment: shutdown()
    Environment - -> SimulationController: EnvironmentShutdownResponse
else Reset
    SimulationController - -> Environment: EnvironmentResetRequest
    Environment - -> Environment: reset()
    Environment - -> SimulationController: EnvironmentResetResponse
end

@enduml

@startuml

autonumber

SimulationController - -> Environment: EnvironmentStartRequest
Environment - -> Environment: start_environment()
Environment - -> SimulationController: EnvironmentStartResponse

loop Until EnvironmentUpdateResponse.is_terminal
    SimulationController - -> Muscle: AgentUpdateRequest
    Muscle - -> SimulationController: AgentUpdateResponse
    SimulationController - -> Environment: EnvironmentUpdateRequest
    Environment - -> Environment: update()
    Environment - -> SimulationController: EnvironmentUpdateResponse
end

alt Shutdown
    SimulationController - -> Environment: EnvironmentShutdownRequest
    Environment - -> Environment: shutdown()
    Environment - -> SimulationController: EnvironmentShutdownResponse
else Reset
    SimulationController - -> Environment: EnvironmentResetRequest
    Environment - -> Environment: reset()
    Environment - -> SimulationController: EnvironmentResetResponse
end

@enduml

PlantUML version 1.2021.11(Sat Oct 02 15:26:11 CEST 2021)
(GPL source distribution)
Java Runtime: OpenJDK Runtime Environment
JVM: OpenJDK 64-Bit Server VM
Default Encoding: UTF-8
Language: de
Country: DE
--></g></svg>